{
  "INITIAL": true,
  "NOVA": true,
  "TRACKINGKEY": "root-DP@@root-distributePolicy@@00",
  "MANAGED_NODES_NAME": [ "localhost" ],
  "MANAGED_NODES_ID": [ "root" ],
  "POLICYSERVER_ADMIN": "root",
  "COMMUNITYPORT": "5309",
  "DENYBADCLOCKS": "true",
  "DAVUSER": "rudder",
  "DAVPASSWORD": "rudder",
  "RUDDER_HEARTBEAT_INTERVAL": "4",
  "RUDDER_NODE_CONFIG_ID": "0",
  "AGENT_RUN_INTERVAL": "5",
  "CONFIGURATION_REPOSITORY_FOLDER": "/var/rudder/configuration-repository",
  "STORE_ALL_CENTRALIZED_LOGS_IN_FILE": true,
  "SYSLOGPORT": "${install_rsyslogd.rsyslog_port[2]}",
  "SHARED_FILES_FOLDER": "/var/rudder/configuration-repository/shared-files"
}
